<!-- Generator: Adobe Illustrator 17.0.0, SVG Export Plug-In  -->
<svg version="1.1"
	 xmlns="http://www.w3.org/2000/svg" xmlns:xlink="http://www.w3.org/1999/xlink"
	 x="0px" y="0px" width="180.675px" height="28.256px" viewBox="0 0 180.675 28.256" enable-background="new 0 0 180.675 28.256"
	 xml:space="preserve">
				<path fill="#FFFFFF" d="M10.607,7.79c3.628,0,7.976,1.357,7.976,3.877v3.213h-4.431v-1.44c0-0.997-1.468-1.495-3.268-1.495
					c-3.628,0-5.76,1.994-5.76,5.733c0,3.683,2.132,6.425,6.037,6.425c1.329,0,3.434-0.333,3.434-1.44v-1.357H11.41v-3.6h7.616
					v6.591c0,2.963-5.594,3.96-8.475,3.96C4.459,28.256,0,23.88,0,17.898C0,11.944,4.403,7.79,10.607,7.79z"/>
				<path opacity="0" fill="#FFFFFF" d="M28.389,13.661c3.85,0,5.844,2.963,5.844,6.425c0,0.194,0,0.36-0.028,0.554l-0.055,0.332
					H23.46c0.083,3.573,2.52,5.594,5.401,5.594c1.302,0,2.326-0.416,3.074-0.831c0.443-0.249,0.831-0.526,1.163-0.831l0.859,1.413
					c-0.415,0.36-0.859,0.665-1.385,0.969c-0.886,0.526-2.188,0.969-3.766,0.969c-4.126,0-7.284-2.991-7.284-7.284
					C21.521,16.403,24.623,13.661,28.389,13.661z M32.267,19.588c-0.083-2.963-1.883-4.348-3.933-4.348
					c-2.326,0-4.348,1.523-4.791,4.348H32.267z"/>
				<path opacity="0" fill="#FFFFFF" d="M44.854,13.661c3.85,0,5.844,2.963,5.844,6.425c0,0.194,0,0.36-0.028,0.554l-0.055,0.332
					h-10.69c0.083,3.573,2.52,5.594,5.401,5.594c1.302,0,2.326-0.416,3.074-0.831c0.443-0.249,0.831-0.526,1.163-0.831l0.859,1.413
					c-0.415,0.36-0.859,0.665-1.385,0.969c-0.886,0.526-2.188,0.969-3.766,0.969c-4.126,0-7.284-2.991-7.284-7.284
					C37.986,16.403,41.088,13.661,44.854,13.661z M48.732,19.588c-0.083-2.963-1.883-4.348-3.933-4.348
					c-2.326,0-4.348,1.523-4.791,4.348H48.732z"/>
				<path fill="#FFFFFF" d="M63.015,24.324h2.216V11.722h-2.216v-3.6h8.613v3.6h-1.44v4.182h1.662l2.908-4.182h-1.495v-3.6h8.142
					v3.6h-1.662l-4.21,5.677v0.055c0.139,0.083,0.305,0.194,0.499,0.36c0.305,0.305,0.692,0.72,1.025,1.413l2.243,4.459
					c0.222,0.416,0.637,0.637,1.219,0.637h0.859v3.6h-3.379c-1.662,0-2.271-0.471-2.797-1.468l-2.963-6.038
					c-0.249-0.526-0.637-0.637-1.385-0.637h-0.665v4.542h2.077v3.6h-9.25V24.324z"/>
				<path fill="#FFFFFF" d="M87.799,20.889v1.468c0,1.025,1.302,1.606,2.853,1.606s2.659-0.526,2.659-1.606
					c0-1.523-2.188-2.022-4.265-2.825c-2.686-1.052-5.207-2.326-5.207-5.954c0-4.403,3.6-5.788,7.118-5.788
					c3.379,0,6.73,1.274,6.73,3.794v2.936h-4.431v-1.246c0-0.776-1.052-1.191-2.299-1.191c-1.135,0-2.133,0.332-2.133,1.357
					c0,1.385,1.634,1.911,3.434,2.576c3.019,1.025,6.037,2.299,6.037,6.037c0,4.514-3.877,6.204-7.644,6.204
					c-3.683,0-7.284-1.634-7.284-4.819v-2.548H87.799z"/>
				<path fill="#FFFFFF" d="M103.915,24.324h2.216V11.999h-2.354v2.797h-4.154V8.122h17.974v6.675h-4.154v-2.797h-2.354v12.324
					h2.216v3.6h-9.388V24.324z"/>
				<path fill="#FFFFFF" d="M129.425,7.79c6.065,0,10.413,4.431,10.413,10.109c0,5.816-4.348,10.358-10.413,10.358
					c-6.065,0-10.413-4.542-10.413-10.358C119.011,12.221,123.359,7.79,129.425,7.79z M129.425,23.963
					c2.908,0,5.29-2.603,5.29-6.065c0-3.323-2.382-5.816-5.29-5.816s-5.29,2.492-5.29,5.816
					C124.135,21.36,126.517,23.963,129.425,23.963z"/>
				<path fill="#FFFFFF" d="M141.618,24.324h2.216V11.722h-2.216v-3.6h7.228l6.204,10.496c0.249,0.416,0.443,0.886,0.582,1.302
					l0.249,0.72h0.111l-0.083-0.775c-0.083-0.443-0.083-0.997-0.083-1.44v-6.702h-2.326v-3.6h9.499v3.6h-2.216v16.201h-4.985
					l-6.231-10.441c-0.222-0.415-0.443-0.886-0.582-1.302l-0.249-0.72h-0.111l0.083,0.775c0.083,0.443,0.083,0.997,0.083,1.44v6.647
					h2.326v3.6h-9.499V24.324z"/>
				<path fill="#FFFFFF" d="M165.083,24.324h2.216V11.722h-2.216v-3.6h15.26v5.844h-4.154v-1.966h-3.933v4.016h5.788v3.877h-5.788
					v4.154h4.265V22.08h4.154v5.844h-15.592V24.324z"/>

				<path fill="#FFB626" d="M51.767,6.958c5.53,0,8.394,4.257,8.394,9.23c0,0.279,0,0.517-0.04,0.796l-0.08,0.477H44.685
					c0.119,5.132,3.62,8.036,7.758,8.036c1.87,0,3.342-0.597,4.416-1.193c0.637-0.358,1.193-0.756,1.671-1.194l1.233,2.029
					c-0.597,0.517-1.233,0.955-1.989,1.392c-1.273,0.756-3.143,1.392-5.411,1.392c-5.928,0-10.463-4.297-10.463-10.463
					C41.901,10.897,46.356,6.958,51.767,6.958z M57.336,15.472c-0.119-4.257-2.705-6.246-5.649-6.246
					c-3.342,0-6.246,2.188-6.882,6.246H57.336z"/>

					<path fill="#FFB626" d="M47.535,9.197c-0.358,0-0.707-0.184-0.902-0.515l-4.18-7.106c-0.293-0.498-0.127-1.138,0.371-1.431
						c0.498-0.293,1.138-0.127,1.431,0.371l4.18,7.106c0.293,0.498,0.127,1.138-0.371,1.431C47.898,9.15,47.715,9.197,47.535,9.197z
						"/>
					<path fill="#FFB626" d="M51.297,9.197c-0.358,0-0.707-0.184-0.902-0.515l-4.18-7.106c-0.293-0.498-0.127-1.138,0.371-1.431
						c0.497-0.293,1.138-0.127,1.431,0.371l4.18,7.106c0.293,0.498,0.127,1.138-0.371,1.431C51.66,9.15,51.477,9.197,51.297,9.197z"
						/>
					<path fill="#FFB626" d="M55.489,9.927c-0.358,0-0.707-0.184-0.902-0.515l-4.61-7.836c-0.293-0.498-0.127-1.138,0.371-1.431
						c0.498-0.293,1.138-0.127,1.431,0.371l4.61,7.836c0.293,0.498,0.127,1.138-0.371,1.431C55.852,9.88,55.669,9.927,55.489,9.927z
						"/>
				<circle fill="#FFB626" cx="53.005" cy="14.323" r="2.072"/>

			<path fill="#FC3A37" d="M30.637,6.958c5.53,0,8.394,4.257,8.394,9.23c0,0.279,0,0.517-0.04,0.796l-0.08,0.477H23.556
				c0.119,5.132,3.62,8.036,7.758,8.036c1.87,0,3.342-0.597,4.416-1.193c0.637-0.358,1.194-0.756,1.671-1.194l1.233,2.029
				c-0.597,0.517-1.233,0.955-1.989,1.392c-1.273,0.756-3.143,1.392-5.41,1.392c-5.928,0-10.463-4.297-10.463-10.463
				C20.771,10.897,25.227,6.958,30.637,6.958z M36.207,15.472c-0.119-4.257-2.705-6.246-5.649-6.246
				c-3.342,0-6.246,2.188-6.882,6.246H36.207z"/>

				<path fill="#FC3A37" d="M26.634,9.197c-0.358,0-0.707-0.184-0.902-0.515l-4.18-7.106c-0.293-0.498-0.127-1.138,0.371-1.431
					c0.498-0.293,1.138-0.127,1.431,0.371l4.18,7.106c0.293,0.498,0.127,1.138-0.371,1.431C26.997,9.15,26.814,9.197,26.634,9.197z"
					/>
				<path fill="#FC3A37" d="M30.396,9.197c-0.358,0-0.707-0.184-0.902-0.515l-4.18-7.106c-0.293-0.498-0.127-1.138,0.371-1.431
					c0.498-0.293,1.138-0.127,1.431,0.371l4.18,7.106c0.293,0.498,0.127,1.138-0.371,1.431C30.759,9.15,30.576,9.197,30.396,9.197z"
					/>
				<path fill="#FC3A37" d="M34.588,9.927c-0.358,0-0.707-0.184-0.902-0.515l-4.61-7.836c-0.293-0.498-0.127-1.138,0.371-1.431
					c0.497-0.293,1.138-0.127,1.431,0.371l4.61,7.836c0.293,0.498,0.127,1.138-0.371,1.431C34.95,9.88,34.768,9.927,34.588,9.927z"
					/>
			<circle fill="#FC3A37" cx="32.276" cy="14.323" r="2.072"/>

</svg>
